[gd_scene load_steps=2 format=1]

[ext_resource path="res://assets/GUI/buble.png" type="Texture" id=1]

[node name="bubble" type="Sprite"]

texture = ExtResource( 1 )

[node name="value" type="Label" parent="."]

focus/ignore_mouse = true
focus/stop_mouse = true
size_flags/horizontal = 2
size_flags/vertical = 0
margin/left = -10.0
margin/top = -10.0
margin/right = 10.0
margin/bottom = 10.0
text = "5"
align = 1
valign = 1
percent_visible = 1.0
lines_skipped = 0
max_lines_visible = -1


