[gd_scene load_steps=3 format=1]

[ext_resource path="res://assets/textures/end_bg.png" type="Texture" id=1]
[ext_resource path="res://scenes/devil/devil.png" type="Texture" id=2]

[node name="lose" type="Node2D"]

[node name="bg" type="Sprite" parent="."]

transform/pos = Vector2( -9.65887, -7.49773 )
transform/scale = Vector2( 1.33014, 1.33554 )
texture = ExtResource( 1 )
centered = false

[node name="boss" type="Sprite" parent="."]

transform/pos = Vector2( 747.654, 223.926 )
transform/scale = Vector2( 2, 2 )
texture = ExtResource( 2 )

[node name="Panel" type="Panel" parent="."]

focus/ignore_mouse = false
focus/stop_mouse = true
size_flags/horizontal = 2
size_flags/vertical = 2
margin/left = 54.0
margin/top = 466.0
margin/right = 433.0
margin/bottom = 588.0

[node name="Label" type="Label" parent="Panel"]

rect/scale = Vector2( 2, 2 )
focus/ignore_mouse = true
focus/stop_mouse = true
size_flags/horizontal = 2
size_flags/vertical = 0
margin/left = 0.0
margin/top = 9.0
margin/right = 189.0
margin/bottom = 61.0
text = "You lose, now Kra'hk will invade some other worlds."
align = 1
valign = 1
autowrap = true
percent_visible = 1.0
lines_skipped = 0
max_lines_visible = -1


